PRS + PWCC Exploratory Analysis
…
0.14

CANARY ROCKFISH

38

0.14

SLENDER SOLE

35

0.12

## # A tibble: 156 × 3
##    taxon                         n prop_samples
##    <chr>                     <int>        <dbl>
##  1 Euphausiidae                220        0.791
##  2 Aequorea victoria           155        0.558
##  3 Glyptocephalus zachirus     150        0.540
##  4 Citharichthys sordidus      147        0.529
##  5 Citharichthys stigmaeus     143        0.514
##  6 Tarletonbeania crenularis   112        0.403
##  7 Abraliopsis felis           108        0.388
##  8 Salpidae                    108        0.388
##  9 Praya spp.                  107        0.385
## 10 Cymbuliidae                 104        0.374
## # ℹ 146 more rows

## # A tibble: 65 × 3
##    common_name             n prop_samples
##    <chr>               <int>        <dbl>
##  1 NORTH PACIFIC HAKE    157        0.559
##  2 SQUID                 140        0.498
##  3 LANTERNFISH           102        0.363
##  4 NORTHERN ANCHOVY       60        0.214
##  5 PACIFIC SARDINE        50        0.178
##  6 REX SOLE               48        0.171
##  7 BUTTER SOLE            41        0.146
##  8 ARROWTOOTH FLOUNDER    38        0.135
##  9 CANARY ROCKFISH        38        0.135
## 10 SLENDER SOLE           35        0.125
## # ℹ 55 more rows
…
## [131] "Sebastes jordani"                  "Sebastes melanops"                
## [133] "Sebastes mystinus"                 "Sebastes paucispinis"             
## [135] "Sebastes pinniger"                 "Sebastes reedi"                   
## [137] "Sebastes ruberrimus"               "Sebastes rufus"                   
## [139] "Sebastes saxicola"                 "Sebastes spp."                    
## [141] "Sebastes wilsoni"                  "Sebastes zacentrus"               
## [143] "Sebastolobus spp."                 "Sergestidae"                      
## [145] "Squalus suckleyi"                  "Stenobrachius leucopsarus"        
## [147] "Streetsia challengeri"             "Symbolophorus californiensis"     
## [149] "Tactostoma macropus"               "Tarletonbeania crenularis"        
## [151] "Thaleichthys pacificus"            "Thetys vagina"                    
## [153] "Torpedo californica"               "Trachipterus altivelis"           
## [155] "Trachurus symmetricus"             "Xeneretmus latifrons"

## # A tibble: 25 × 3
##    taxon                          n prop_samples
##    <chr>                      <int>        <dbl>
##  1 Euphausiidae                 220        0.791
##  2 Glyptocephalus zachirus      150        0.540
##  3 Abraliopsis felis            108        0.388
##  4 Sergestidae                   74        0.266
##  5 Psettichthys melanostictus    70        0.252
##  6 Microstomus pacificus         69        0.248
##  7 Lyopsetta exilis              63        0.227
##  8 Sebastes spp.                 62        0.223
##  9 Engraulis mordax              55        0.198
## 10 Merluccius productus          53        0.191
## # ℹ 15 more rows
…
